<?xml version="1.0" encoding="UTF-8" standalone="no"?>
<!-- Created with Inkscape (http://www.inkscape.org/) -->

<svg
   xmlns:dc="http://purl.org/dc/elements/1.1/"
   xmlns:cc="http://creativecommons.org/ns#"
   xmlns:rdf="http://www.w3.org/1999/02/22-rdf-syntax-ns#"
   xmlns:svg="http://www.w3.org/2000/svg"
   xmlns="http://www.w3.org/2000/svg"
   xmlns:sodipodi="http://sodipodi.sourceforge.net/DTD/sodipodi-0.dtd"
   xmlns:inkscape="http://www.inkscape.org/namespaces/inkscape"
   width="48"
   height="48"
   viewBox="0 0 12.7 12.7"
   version="1.1"
   id="svg8"
   inkscape:version="0.92.4 (5da689c313, 2019-01-14)"
   sodipodi:docname="electric motor poles.svg">
  <defs
     id="defs2" />
  <sodipodi:namedview
     id="base"
     pagecolor="#ffffff"
     bordercolor="#666666"
     borderopacity="1.0"
     inkscape:pageopacity="0.0"
     inkscape:pageshadow="2"
     inkscape:zoom="12.521683"
     inkscape:cx="24"
     inkscape:cy="24"
     inkscape:document-units="mm"
     inkscape:current-layer="layer1"
     showgrid="false"
     units="px"
     showguides="true"
     inkscape:lockguides="false"
     inkscape:snap-others="false"
     inkscape:snap-global="false"
     inkscape:window-width="1920"
     inkscape:window-height="1017"
     inkscape:window-x="-8"
     inkscape:window-y="-8"
     inkscape:window-maximized="1">
    <inkscape:grid
       type="xygrid"
       id="grid3745" />
  </sodipodi:namedview>
  <metadata
     id="metadata5">
    <rdf:RDF>
      <cc:Work
         rdf:about="">
        <dc:format>image/svg+xml</dc:format>
        <dc:type
           rdf:resource="http://purl.org/dc/dcmitype/StillImage" />
        <dc:title />
      </cc:Work>
    </rdf:RDF>
  </metadata>
  <g
     inkscape:label="Laag 1"
     inkscape:groupmode="layer"
     id="layer1"
     transform="translate(0,-284.3)">
    <ellipse
       style="fill:#ffffff;stroke-width:0.26458332"
       id="path3733"
       cx="6.2400022"
       cy="290.63266"
       r="0.96419865" />
    <path
       style="fill:#ffffff;stroke-width:1.0030067"
       d="M 24 0 A 24 24 0 0 0 0 24 A 24 24 0 0 0 24 48 A 24 24 0 0 0 48 24 A 24 24 0 0 0 24 0 z M 24 1 A 23 23 0 0 1 47 24 A 23 23 0 0 1 24 47 A 23 23 0 0 1 1 24 A 23 23 0 0 1 24 1 z "
       id="path3759"
       transform="matrix(0.26458333,0,0,0.26458333,0,284.3)" />
    <path
       style="fill:#ffffff;stroke-width:0.41739398"
       d="m 6.35,284.55134 a 6.0986458,6.0986424 0 0 0 -1.1678369,0.11498 l 0.062664,0.26049 a 5.8334873,5.8334841 0 0 1 1.1051725,-0.11031 5.8334873,5.8334841 0 0 1 1.2185897,0.13154 l 0.06629,-0.25221 A 6.0986458,6.0986424 0 0 0 6.35,284.55134 Z m -1.6831351,0.24185 a 6.0986458,6.0986424 0 0 0 -2.6132615,1.53399 l 0.1952437,0.18022 a 5.8334873,5.8334841 0 0 1 2.4796465,-1.45837 z m 3.4807234,0.0358 -0.065772,0.25118 a 5.8334873,5.8334841 0 0 1 2.0503177,1.13158 l 0.175564,-0.188 a 6.0986458,6.0986424 0 0 0 -2.1601097,-1.19476 z m 2.5480077,1.55626 -0.176082,0.1885 a 5.8334873,5.8334841 0 0 1 1.262093,1.95244 l 0.244443,-0.0829 a 6.0986458,6.0986424 0 0 0 -1.330454,-2.05808 z m -8.999853,0.33351 a 6.0986458,6.0986424 0 0 0 -1.17508721,2.15286 l 0.25480076,0.0657 a 5.8334873,5.8334841 0 0 1 1.11242275,-2.04151 z m 10.503281,2.22588 -0.248586,0.0839 a 5.8334873,5.8334841 0 0 1 0.233049,1.6215 5.8334873,5.8334841 0 0 1 -0.1274,1.19944 l 0.255319,0.0657 a 6.0986458,6.0986424 0 0 0 0.13724,-1.26521 6.0986458,6.0986424 0 0 0 -0.249622,-1.7054 z M 0.38859441,289.3848 a 6.0986458,6.0986424 0 0 0 -0.13724024,1.2652 6.0986458,6.0986424 0 0 0 0.24962187,1.7054 l 0.24858611,-0.0839 a 5.8334873,5.8334841 0 0 1 -0.23304947,-1.62152 5.8334873,5.8334841 0 0 1 0.1274004,-1.19943 z m 11.53594959,2.97786 a 5.8334873,5.8334841 0 0 1 -1.112423,2.04151 l 0.192136,0.17712 a 6.0986458,6.0986424 0 0 0 1.175087,-2.15286 z m -11.00615044,0.4112 -0.24444301,0.0829 a 6.0986458,6.0986424 0 0 0 1.33045355,2.05808 l 0.1760818,-0.18851 A 5.8334873,5.8334841 0 0 1 0.91839356,292.7739 Z m 9.53275944,2.01873 a 5.8334873,5.8334841 0 0 1 -2.4796467,1.45837 l 0.061629,0.25584 a 6.0986458,6.0986424 0 0 0 2.6132617,-1.53399 z m -7.8832871,0.29571 -0.1755639,0.188 a 6.0986458,6.0986424 0 0 0 2.1601096,1.19476 l 0.065772,-0.25118 A 5.8334873,5.8334841 0 0 1 2.5678659,295.0883 Z m 2.5635443,1.26364 -0.06629,0.25222 a 6.0986458,6.0986424 0 0 0 1.2848794,0.14449 6.0986458,6.0986424 0 0 0 1.1678368,-0.11498 l -0.062664,-0.26049 A 5.8334873,5.8334841 0 0 1 6.35,296.48348 5.8334873,5.8334841 0 0 1 5.1314102,296.35194 Z"
       id="path3764"
       inkscape:connector-curvature="0" />
  </g>
</svg>
